/Users/Moath/eclipse-workspace/Saloodo/src/main/java/com/saloodo/framework/ReadProperty.java
/Users/Moath/eclipse-workspace/Saloodo/src/main/java/com/saloodo/framework/Common.java
/Users/Moath/eclipse-workspace/Saloodo/src/main/java/com/saloodo/framework/Base.java
/Users/Moath/eclipse-workspace/Saloodo/src/main/java/com/saloodo/framework/ReadLocator.java
